owu@jitew.cg,9023505273,UPEI
zihme@cogon.mu,9028687265,VAC
tihavi@lihfa.br,9022822235,Thinking Big
fewmuztaz@widji.ng,9023243233,Accreon
lafjufto@fowi.sb,9024436725,Revolution Media
dahcuta@opaga.gb,9023273123,Maximus Canada
ragen@vorficep.pm,9029326254,Discovery Garden
pis@te.cx,9029084727,Province of PEI
jouje@toveuc.mo,9028403027,Sculpin QA
hek@eckos.ly,9022167959,Radnet
